{
  "type": "object",
  "title": "extractor configuration",
  "required": [
    "#api_token",
    "period_from"
  ],
  "properties": {
    "#api_token": {
      "type": "string",
      "title": "API token",
      "format": "password",
      "propertyOrder": 100
    },
    "period_from": {
      "type": "string",
      "format": "timestamp",
      "title": "Period from date [including]",
      "propertyOrder": 200
    }
  }
}
